....
----------------------------------------------------------------------
Ran 4 tests in 0.001s

OK
Name               Stmts   Miss Branch BrPart  Cover   Missing
--------------------------------------------------------------
Diplomacy.py          93      0     36      0   100%
TestDiplomacy.py      25      0      0      0   100%
--------------------------------------------------------------
TOTAL                118      0     36      0   100%
